{
  "name": "WeightedShortestJobFirst",
  "fields": [
    {
      "fieldName": "group",
      "fieldType": "String"
    },
    {
      "fieldName": "classNum",
      "fieldType": "String"
    },
    {
      "fieldName": "feature",
      "fieldType": "String"
    },
    {
      "fieldName": "userBV",
      "fieldType": "Integer"
    },
    {
      "fieldName": "timeC",
      "fieldType": "Integer"
    },
    {
      "fieldName": "rroe",
      "fieldType": "Integer"
    },
    {
      "fieldName": "jobS",
      "fieldType": "Integer"
    }
  ],
  "relationships": [],
  "changelogDate": "20210218170924",
  "entityTableName": "weighted_shortest_job_first",
  "dto": "no",
  "pagination": "no",
  "service": "no",
  "jpaMetamodelFiltering": false,
  "fluentMethods": true,
  "readOnly": false,
  "embedded": false,
  "clientRootFolder": "",
  "applications": "*"
}
